<svg width="24" height="24" viewBox="0 0 24 24" fill="none" xmlns="http://www.w3.org/2000/svg">
<path opacity="0.4" d="M21.3699 11.3899V17.3799C21.3699 20.1399 19.1299 22.3799 16.3699 22.3799H7.62988C4.86988 22.3799 2.62988 20.1399 2.62988 17.3799V11.4599C3.38988 12.2799 4.46988 12.7499 5.63988 12.7499C6.89988 12.7499 8.10988 12.1199 8.86988 11.1099C9.54988 12.1199 10.7099 12.7499 11.9999 12.7499C13.2799 12.7499 14.4199 12.1499 15.1099 11.1499C15.8799 12.1399 17.0699 12.7499 18.3099 12.7499C19.5199 12.7499 20.6199 12.2599 21.3699 11.3899Z" fill="#292D32"/>
<path d="M14.9901 1.25H8.9901L8.2501 8.61C8.1901 9.29 8.2901 9.93 8.5401 10.51C9.1201 11.87 10.4801 12.75 12.0001 12.75C13.5401 12.75 14.8701 11.89 15.4701 10.52C15.6501 10.09 15.7601 9.59 15.7701 9.08V8.89L14.9901 1.25Z" fill="#292D32"/>
<path opacity="0.6" d="M22.36 8.27L22.07 5.5C21.65 2.48 20.28 1.25 17.35 1.25H13.51L14.25 8.75C14.26 8.85 14.27 8.96 14.27 9.15C14.33 9.67 14.49 10.15 14.73 10.58C15.45 11.9 16.85 12.75 18.31 12.75C19.64 12.75 20.84 12.16 21.59 11.12C22.19 10.32 22.46 9.31 22.36 8.27Z" fill="#292D32"/>
<path opacity="0.6" d="M6.58989 1.25C3.64989 1.25 2.28989 2.48 1.85989 5.53L1.58989 8.28C1.48989 9.35 1.77989 10.39 2.40989 11.2C3.16989 12.19 4.33989 12.75 5.63989 12.75C7.09989 12.75 8.49989 11.9 9.20989 10.6C9.46989 10.15 9.63989 9.63 9.68989 9.09L10.4699 1.26H6.58989V1.25Z" fill="#292D32"/>
<path d="M11.3501 16.6602C10.0801 16.7902 9.12012 17.8702 9.12012 19.1502V22.3802H14.8701V19.5002C14.8801 17.4102 13.6501 16.4202 11.3501 16.6602Z" fill="#292D32"/>
</svg>
